C:\Users\sushmitha.sivaraju\Desktop\SCHAutomation\SCHAutomation\src\test\java\testRunner\TestRunner.java
C:\Users\sushmitha.sivaraju\Desktop\SCHAutomation\SCHAutomation\src\test\java\stepDefinitions\NewCaseTest.java
C:\Users\sushmitha.sivaraju\Desktop\SCHAutomation\SCHAutomation\src\test\java\stepDefinitions\TestGoogle.java
C:\Users\sushmitha.sivaraju\Desktop\SCHAutomation\SCHAutomation\src\test\java\Common\Basecpage.java
C:\Users\sushmitha.sivaraju\Desktop\SCHAutomation\SCHAutomation\src\test\java\stepDefinitions\ThermalincidentTest.java
C:\Users\sushmitha.sivaraju\Desktop\SCHAutomation\SCHAutomation\src\test\java\stepDefinitions\LifestyleProductTest.java
C:\Users\sushmitha.sivaraju\Desktop\SCHAutomation\SCHAutomation\src\test\java\stepDefinitions\OpenMOT.java
C:\Users\sushmitha.sivaraju\Desktop\SCHAutomation\SCHAutomation\src\test\java\PageFactory\SCHPageElements.java
C:\Users\sushmitha.sivaraju\Desktop\SCHAutomation\SCHAutomation\src\test\java\SCH\SCHAutomation\AppTest.java
